…
```r
prod.li
```

```
## $keywords
## # A tibble: 2 x 5
##   Var1             Var2       paper_count sf        url                   
##   <chr>            <chr>            <dbl> <chr>     <chr>                 
## 1 machine learning reservoir         763. 'machine… "https://www.onepetro…
## 2 machine learning production        828. 'machine… "https://www.onepetro…
## 
## $papers
## # A tibble: 1,303 x 7
##    title_data      paper_id  source  type    year author1_data    keyword 
##    <chr>           <chr>     <chr>   <chr>  <int> <chr>           <chr>   
##  1 Potential Pitf… "       … "     … "    …  2014 Harris, Cole, … 'machin…
##  2 Mooring Integr… "       … "     … "    …  2017 Prislin, Igor,… 'machin…
##  3 Data Driven Pr… "       … "     … "    …  2016 Cao, Q., Schlu… 'machin…
##  4 Predicting ESP… "       … "     … "    …  2017 Sneed, Jessamy… 'machin…
##  5 Smart Conditio… "       … "     … "    …  2017 Bangert, Patri… 'machin…
##  6 Using Machine … "       … "     … "    …  2018 Snøtun, Håkon,… 'machin…
##  7 Advanced Machi… "       … "     … "    …  2014 Subrahmanya, N… 'machin…
##  8 Selection of E… "       … "     … "    …  2002 Alvarado, Vlad… 'machin…
##  9 A Machine Lear… "       … "     … "    …  1991 Brown, J.P., U… 'machin…
## 10 Predicting and… "       … "     … "    …  2017 Bangert, Patri… 'machin…
## # ... with 1,293 more rows
```
…
