…
What the package `petro.One` does is connecting with `OnePetro` and submit the text **technical potential** to the website, specifying that we want papers that only have those two words together with the parameter `how`. We could read the number of papers from the object `num_papers`.

We read the titles of the papers, and the rest of the metadata, and put that in a dataframe `df`. So, we get 132 papers as it is shown below.


```r
df <- read_multidoc(my_url)
write.csv(df, file.path(rprojroot::find_rstudio_root_file(), "data", "tp-papers.csv"), row.names = FALSE)
df
```

```
# A tibble: 134 x 6
   title_data            paper_id   source  type    year author1_data     
   <chr>                 <chr>      <chr>   <chr>  <int> <chr>            
 1 Reserve Technical Po… "        … "     … "    …  2014 Ruslan, M.,      
 2 Technical Potential:… "        … "     … "    …  2017 Gupta, Vipin Pra…
 3 Using Business Intel… "        … "     … "    …  2017 Haris Hamzah, M,…
 4 Managed Pressure Dri… "        … "     … "    …  2013 Sridharan, Prem …
 5 Optimizing Number of… "        … "     … "    …  2015 Guk, Vyacheslav,…
 6 Intelligent Automati… "        … "     … "    …  2014 Zubarev, Victor,…
 7 The Models of Sea Wa… "        … "     … "    …  2012 Chizhiumov, Serg…
 8 The First Subsea Com… "        … "     … "    …  2013 Mahadi, K., PETR…
 9 Staying Ahead throug… "        … "     … "    …  2017 Baghdadi, F., PE…
10 Optimization of Surf… "        … "     … "    …  2017 Lotfollahi, Moha…
# ... with 124 more rows
```
…
tdm.matrix <- as.matrix(paper.tdm)
tdm.rs <- sort(rowSums(tdm.matrix), decreasing = TRUE)
tdm.df1 <- tibble(word = names(tdm.rs), freq = tdm.rs)
tdm.df1
```

```
[1] "data"        "forecast"    "forecasting" "potential"   "production" 
[6] "technical"  
$gupta2017.pdf
       data  production    forecast forecasting   potential   technical 
         90          89          72          67          61          55 

# A tibble: 1,442 x 2
   word         freq
   <chr>       <dbl>
 1 data          90.
 2 production    89.
 3 forecast      72.
 4 forecasting   67.
 5 potential     61.
 6 technical     55.
 7 model         49.
 8 fields        48.
 9 well          45.
10 based         39.
# ... with 1,432 more rows
```
…
tdm.matrix <- as.matrix(paper.tdm)
tdm.rs <- sort(rowSums(tdm.matrix), decreasing = TRUE)
tdm.df2 <- tibble(word = names(tdm.rs), freq = tdm.rs)
tdm.df2
```

```
character(0)
$ruslan2014.pdf
 potential   reserves  technical production      field       will 
        47         45         40         28         23         21 

# A tibble: 809 x 2
   word        freq
   <chr>      <dbl>
 1 potential    47.
 2 reserves     45.
 3 technical    40.
 4 production   28.
 5 field        23.
 6 will         21.
 7 resources    19.
 8 management   18.
 9 mature       18.
10 proved       17.
# ... with 799 more rows
```
…
